[
    {
        "name": "BookAPIProduct${deployment.suffix}",
        "displayName": "BookAPIProduct",
        "description": "Book API Product",
        "approvalType": "auto",
        "environments": [
            "test"
        ],
        "proxies": [
            "book${deployment.suffix}-api-v1"
        ],
        "quota": "2",
        "quotaInterval": "1",
        "quotaTimeUnit": "minute"
    }
]
